{
  "id": "kijung3",
  "password": "$6$tILgPP0KRIXPCh5V$Ukocyp2Al4o.5M1MVdl2JowF8arVlaNgjmPGipY7zaktW3qLRLWatodby/er8.fu.OvXYXSPIZpsei4uLPtaN.",
  "home": "/home/kijung3",
  "shell": "/bin/bash",
  "uid": 10001,
  "gid": 11000,
  "group": "dba",
  "e_mail": "kijung3@gamevilcom2us.com",
  "department": "DT",
  "ssh_key": "",
  "servers": [
  ],
  "delete_servers": [

  ]
}
