{
  "id": "ksewookk",
  "password": "$6$wNTmHFzTovSfSmxW$dTnIy6tlL3cBm1..Bjfn6L.5uLeU.yu8LvioGGg2t3IZbXmtH8ltlioLalFVX1vfU6SGTQrxDjzt15J67muMU.",
  "home": "/home/ksewookk",
  "shell": "/bin/bash",
  "group": "dba",
  "e_mail": "ksewookk@gamevilcom2us.com",
  "department": "DT_DBA",
  "ssh_key": "",
  "servers": [
  ],
  "delete_servers": [

  ]
}
