{
  "id": "com2usadmin",
  "password": "",
  "home": "/home/com2usadmin",
  "shell": "/bin/bash",
  "uid": "com2usadmin",
  "ssh_key": [],
  "servers": [
    "ams-test-01.com2us.kr",
    "appapp-test-01.com2us.kr",
    "fluentd-test-01.com2us.kr",
    "index-was-02.com2us.kr",
    "es-test-01.com2us.kr",
    "markup-test-01.com2us.kr",
    "manager-test-01.com2us.kr",
    "hiveauthority-test-01.com2us.kr",
    "hiveconsole-test-01.com2us.kr",
    "hiveauthv4-test-02.com2us.kr",
    "kafka-test-01.com2us.kr",
    "iapv1-test-01.com2us.kr",
    "targeting-test-01.com2us.kr",
    "hivenotification-test-01.com2us.kr",
    "stepbystep-test-01.com2us.kr",
    "ps2-testdb-01.com2us.kr",
    "stepbystep-was-01.com2us.kr",
    "stepbystep-was-02.com2us.kr",
    "stepbystep-sandboxwas-01.com2us.kr",
    "companysite-was-01.com2us.kr",
    "companysite-was-02.com2us.kr",
    "hivees-staging-01.com2us.kr",
    "hivepc-was-01.com2us.kr",
    "hivepc-was-02.com2us.kr",
    "hivepc-was-03.com2us.kr",
    "hivepc-was-04.com2us.kr",
    "hivepc-was-05.com2us.kr",
    "hivepc-was-06.com2us.kr",
    "mhive-was-01.com2us.kr",
    "mhive-was-02.com2us.kr",
    "mhive-was-03.com2us.kr",
    "backoffice-was-01.com2us.kr",
    "backoffice-was-02.com2us.kr",
    "hivesocial-was-01.com2us.kr",
    "hivesocial-was-02.com2us.kr",
    "hivesocial-was-03.com2us.kr",
    "hivesocial-was-04.com2us.kr",
    "hivesocialm-was-01.com2us.kr",
    "hivesocialm-was-02.com2us.kr",
    "hivesocialm-was-03.com2us.kr",
    "hivesocialm-sandboxwas-01.com2us.kr",
    "hivesocialm-twas-01.com2us.kr",
    "hivesocialm-staging-01.com2us.kr",
    "hivesocial-test-01.com2us.kr",
    "hivesocial-devwas-01.com2us.kr",
    "hiveanalyticsapm-log-01.com2us.kr",
    "hiveanalyticsapm-log-02.com2us.kr",
    "hiveanalyticsapm-was-01.com2us.kr",
    "hivescheduler-server-01.com2us.kr",
    "gmsv1-was-01.com2us.kr",
    "gmsv1-was-02.com2us.kr",
    "gmsv1-staging-01.com2us.kr",
    "shive-memcache-04.com2us.kr",
    "shive-memcache-05.com2us.kr",
    "shive-memcache-06.com2us.kr",
    "shive-memcache-07.com2us.kr",
    "shive-memcache-08.com2us.kr",
    "shive-memcache-09.com2us.kr",
    "shive-memcache-10.com2us.kr",
    "shive-memcache-11.com2us.kr",
    "shive-memcache-12.com2us.kr",
    "shive-memcache-13.com2us.kr",
    "shive-memcache-14.com2us.kr",
    "shive-memcache-15.com2us.kr",
    "shive-memcache-16.com2us.kr",
    "shive-memcache-17.com2us.kr",
    "mhive-was-04.com2us.kr",
    "mhive-was-05.com2us.kr",
    "mhive-was-06.com2us.kr",
    "hivecoupon-was-01.com2us.kr",
    "hivecoupon-was-02.com2us.kr",
    "hivecoupon-was-03.com2us.kr",
    "hivecoupon-was-04.com2us.kr",
    "hivecoupon-was-05.com2us.kr",
    "hivecoupon-was-06.com2us.kr",
    "activeuser-was-01.com2us.kr",
    "activeuser-was-02.com2us.kr",
    "activeuser-was-03.com2us.kr",
    "activeuser-was-04.com2us.kr",
    "activeuser-was-05.com2us.kr",
    "activeuser-was-06.com2us.kr",
    "activeuser-was-07.com2us.kr",
    "activeuser-socket-01.com2us.kr",
    "tf-test-01.com2us.kr",
    "gmsv1-sandboxwas-01.com2us.kr"
  ],
  "delete_servers": [

  ]
}
