{
  "id": "hubmanager",
  "password": "",
  "home": "/home/hubmanager",
  "shell": "/bin/bash",
  "uid": "hubmanager",
  "ssh_key": [],
  "servers": [
    "backoffice-was-01.com2us.kr",
    "backoffice-was-02.com2us.kr"
  ],
  "delete_servers": [

  ]
}
