{
    "id" : "hub",
    "users" : {
                "com2usmadmin" : {
                    "home" : "/home/com2usmadmin",
                    "shell" : "/bin/bash"
                },
                "root" : {
                    "home" : "/root",
                    "shell" : "/bin/bash"
                },
                "coolji" : {
                    "home" : "/home/coolji",
                    "shell" : "/bin/bash"
                },
                "h2nine" : {
                    "home" : "/home/h2nine",
                    "shell" : "/bin/bash"
                },
                "frizzle" : {
                    "home" : "/home/frizzle",
                    "shell" : "/bin/bash"
                },
                "congliu" : {
                    "home" : "/home/congliu",
                    "shell" : "/bin/bash"
                }
    }
}
