{
    "id" : "pubgame",
    "users" : {
                "com2usmadmin" : {
                    "home" : "/home/com2usmadmin",
                    "shell" : "/bin/bash"
                },
                "root" : {
                    "home" : "/root",
                    "shell" : "/bin/bash"
                },
                "sgsong" : {
                    "home" : "/home/sgsong",
                    "shell" : "/bin/bash"
                },
                "iyagi" : {
                    "home" : "/home/iyagi",
                    "shell" : "/bin/bash"
                },
                "polonaiz" : {
                    "home" : "/home/polonaiz",
                    "shell" : "/bin/bash"
                }
    }
}
